dump.vcd
$date
	Tue Apr  1 12:35:33 2025
$end
$version
	Icarus Verilog
$end
$timescale
	1s
$end
$scope module test $end
$var wire 6 ! led [5:0] $end
$var reg 1 " btnC $end
$var reg 4 # sw [3:0] $end
$scope module uut $end
$var wire 1 " btnC $end
$var wire 4 $ sw [3:0] $end
$var wire 6 % led [5:0] $end
$scope module dff_inst $end
$var wire 1 " clk $end
$var wire 1 & d $end
$var reg 1 ' notq $end
$var reg 1 ( q $end
$upscope $end
$scope module jk_inst $end
$var wire 1 " clk $end
$var wire 1 ) d $end
$var wire 1 * j $end
$var wire 1 + k $end
$var wire 1 , q $end
$var wire 1 - notq $end
$scope module dff_inst $end
$var wire 1 " clk $end
$var wire 1 ) d $end
$var reg 1 - notq $end
$var reg 1 , q $end
$upscope $end
$upscope $end
$scope module tff_inst $end
$var wire 1 " clk $end
$var wire 1 . t $end
$var wire 1 / q $end
$var wire 1 0 notq $end
$scope module jk_inst $end
$var wire 1 " clk $end
$var wire 1 1 d $end
$var wire 1 . j $end
$var wire 1 . k $end
$var wire 1 / q $end
$var wire 1 0 notq $end
$scope module dff_inst $end
$var wire 1 " clk $end
$var wire 1 1 d $end
$var reg 1 0 notq $end
$var reg 1 / q $end
$upscope $end
$upscope $end
$upscope $end
$upscope $end
$scope task set_check_dff $end
$upscope $end
$scope task set_check_jkff $end
$upscope $end
$scope task set_check_tff $end
$upscope $end
$scope task toggle_clock $end
$upscope $end
$upscope $end
$enddefinitions $end
$comment Show the parameter values. $end
$dumpall
$end
#0
$dumpvars
01
10
0/
0.
1-
0,
0+
0*
0)
0(
1'
0&
b101010 %
b0 $
b0 #
0"
b101010 !
$end
#1
1"
#2
0"
#3
1"
#4
1&
b1 #
b1 $
0"
#5
0'
b101001 !
b101001 %
1(
1"
#6
1+
b101 #
b101 $
0"
#7
1"
#8
0+
b1 #
b1 $
0"
#9
1"
#10
1)
1*
b11 #
b11 $
0"
#11
0-
b100101 !
b100101 %
1,
1"
#12
0*
b1 #
b1 $
0"
#13
1"
#14
0)
1+
1*
b111 #
b111 $
0"
#15
1)
1-
b101001 !
b101001 %
0,
1"
#16
0"
#17
0)
0-
b100101 !
b100101 %
1,
1"
#18
0"
#19
1)
1-
b101001 !
b101001 %
0,
1"
#20
11
1.
b1111 #
b1111 $
0"
#21
0)
01
0-
1,
00
b10101 !
b10101 %
1/
1"
#22
11
0.
b111 #
b111 $
0"
#23
1)
1-
b11001 !
b11001 %
0,
1"
#24
01
1.
b1111 #
b1111 $
0"
#25
0)
11
0-
1,
10
b100101 !
b100101 %
0/
1"
